pa_unsorted_concat 0:
234 	|	220 	224 	214 	219 	220 	| 	 avg: 219.40
237 	|	215 	220 	212 	214 	219 	| 	 avg: 216.00
243 	|	215 	213 	215 	218 	215 	| 	 avg: 215.20
252 	|	229 	231 	237 	231 	226 	| 	 avg: 230.80
237 	|	222 	220 	219 	212 	221 	| 	 avg: 218.80
236 	|	221 	217 	213 	217 	216 	| 	 avg: 216.80
226 	|	226 	225 	216 	222 	220 	| 	 avg: 221.80
222 	|	219 	220 	214 	218 	211 	| 	 avg: 216.40
232 	|	209 	219 	211 	211 	217 	| 	 avg: 213.40
242 	|	221 	213 	215 	221 	218 	| 	 avg: 217.60
233 	|	220 	217 	228 	216 	225 	| 	 avg: 221.20
236 	|	203 	211 	208 	217 	212 	| 	 avg: 210.20
227 	|	214 	218 	209 	218 	210 	| 	 avg: 213.80
229 	|	209 	217 	224 	211 	216 	| 	 avg: 215.40
243 	|	218 	219 	210 	216 	222 	| 	 avg: 217.00
227 	|	212 	221 	215 	215 	216 	| 	 avg: 215.80
240 	|	225 	226 	216 	223 	215 	| 	 avg: 221.00
250 	|	219 	220 	222 	229 	220 	| 	 avg: 222.00
243 	|	227 	222 	228 	224 	224 	| 	 avg: 225.00
225 	|	216 	221 	223 	220 	213 	| 	 avg: 218.60
average initials   235	 average finals:   217
