po_unsorted_mix 1:
234 	|	365 	384 	379 	378 	377 	| 	 avg: 376.60
223 	|	403 	370 	376 	436 	386 	| 	 avg: 394.20
234 	|	383 	398 	390 	384 	392 	| 	 avg: 389.40
229 	|	386 	380 	353 	391 	379 	| 	 avg: 377.80
240 	|	402 	391 	370 	388 	360 	| 	 avg: 382.20
219 	|	351 	399 	387 	387 	389 	| 	 avg: 382.60
211 	|	395 	359 	385 	380 	375 	| 	 avg: 378.80
220 	|	371 	369 	385 	382 	385 	| 	 avg: 378.40
232 	|	377 	393 	379 	363 	384 	| 	 avg: 379.20
215 	|	394 	363 	390 	350 	386 	| 	 avg: 376.60
224 	|	375 	359 	378 	390 	388 	| 	 avg: 378.00
250 	|	387 	382 	370 	378 	392 	| 	 avg: 381.80
236 	|	379 	378 	391 	385 	385 	| 	 avg: 383.60
221 	|	378 	363 	352 	376 	380 	| 	 avg: 369.80
228 	|	378 	382 	374 	384 	354 	| 	 avg: 374.40
230 	|	384 	374 	382 	385 	384 	| 	 avg: 381.80
236 	|	377 	373 	391 	383 	387 	| 	 avg: 382.20
239 	|	379 	391 	378 	373 	371 	| 	 avg: 378.40
239 	|	379 	385 	378 	379 	397 	| 	 avg: 383.60
241 	|	375 	385 	382 	394 	391 	| 	 avg: 385.40
average initials 230.05	 average finals: 380.25
