po_unsorted_concat 0:
521 	|	604 	535 	879 	635 	605 	| 	 avg: 651.60
537 	|	611 	585 	611 	686 	580 	| 	 avg: 614.60
598 	|	625 	561 	535 	630 	535 	| 	 avg: 577.20
542 	|	581 	664 	560 	586 	605 	| 	 avg: 599.20
527 	|	535 	603 	655 	874 	610 	| 	 avg: 655.40
507 	|	660 	822 	581 	606 	635 	| 	 avg: 660.80
540 	|	953 	611 	560 	646 	930 	| 	 avg: 740.00
519 	|	655 	585 	606 	535 	635 	| 	 avg: 603.20
561 	|	585 	889 	535 	605 	606 	| 	 avg: 644.00
556 	|	610 	843 	535 	636 	598 	| 	 avg: 644.40
497 	|	611 	586 	637 	586 	611 	| 	 avg: 606.20
559 	|	655 	560 	632 	631 	812 	| 	 avg: 658.00
511 	|	535 	637 	652 	561 	610 	| 	 avg: 599.00
552 	|	1320 	1054 	732 	631 	610 	| 	 avg: 869.40
531 	|	581 	1969 	726 	602 	595 	| 	 avg: 894.60
550 	|	580 	604 	611 	623 	560 	| 	 avg: 595.60
538 	|	535 	637 	585 	535 	637 	| 	 avg: 585.80
486 	|	600 	606 	560 	535 	560 	| 	 avg: 572.20
556 	|	585 	556 	586 	626 	625 	| 	 avg: 595.60
534 	|	1141 	638 	560 	605 	604 	| 	 avg: 709.60
average initials 536.10	 average finals: 653.45
